…
sources = lapply(betas$betas, cbind, a)

names(sources) <- betas$element

lapply(sources, as_tibble) 
```

    ## $pm25
    ## # A tibble: 26,298 x 9
    ##    beta_1 beta_2 beta_4 beta_6 beta_5 beta_3 date       factor_num factor_score
    ##     <dbl>  <dbl>  <dbl>  <dbl>  <dbl>  <dbl> <date>          <dbl>        <dbl>
    ##  1  1542.  1343.  5728.   638.   953.   9.10 1999-01-01          1       NA    
    ##  2  1542.  1343.  5728.   638.   953.   9.10 1999-01-01          2       NA    
    ##  3  1542.  1343.  5728.   638.   953.   9.10 1999-01-01          4       NA    
    ##  4  1542.  1343.  5728.   638.   953.   9.10 1999-01-01          6       NA    
    ##  5  1542.  1343.  5728.   638.   953.   9.10 1999-01-01          5       NA    
    ##  6  1542.  1343.  5728.   638.   953.   9.10 1999-01-01          3       NA    
    ##  7  1542.  1343.  5728.   638.   953.   9.10 1999-01-02          1        0.413
    ##  8  1542.  1343.  5728.   638.   953.   9.10 1999-01-02          2        2.07 
    ##  9  1542.  1343.  5728.   638.   953.   9.10 1999-01-02          4        0.360
    ## 10  1542.  1343.  5728.   638.   953.   9.10 1999-01-02          6       -0.130
    ## # … with 26,288 more rows
    ## 
    ## $bc
    ## # A tibble: 26,298 x 9
    ##    beta_1 beta_2 beta_4 beta_6 beta_5 beta_3 date       factor_num factor_score
    ##     <dbl>  <dbl>  <dbl>  <dbl>  <dbl>  <dbl> <date>          <dbl>        <dbl>
    ##  1   40.8   127.   249.   98.9   67.7  -25.9 1999-01-01          1       NA    
    ##  2   40.8   127.   249.   98.9   67.7  -25.9 1999-01-01          2       NA    
    ##  3   40.8   127.   249.   98.9   67.7  -25.9 1999-01-01          4       NA    
    ##  4   40.8   127.   249.   98.9   67.7  -25.9 1999-01-01          6       NA    
    ##  5   40.8   127.   249.   98.9   67.7  -25.9 1999-01-01          5       NA    
    ##  6   40.8   127.   249.   98.9   67.7  -25.9 1999-01-01          3       NA    
    ##  7   40.8   127.   249.   98.9   67.7  -25.9 1999-01-02          1        0.413
    ##  8   40.8   127.   249.   98.9   67.7  -25.9 1999-01-02          2        2.07 
    ##  9   40.8   127.   249.   98.9   67.7  -25.9 1999-01-02          4        0.360
    ## 10   40.8   127.   249.   98.9   67.7  -25.9 1999-01-02          6       -0.130
    ## # … with 26,288 more rows
    ## 
    ## $Na
    ## # A tibble: 26,298 x 9
    ##    beta_1 beta_2 beta_4 beta_6 beta_5 beta_3 date       factor_num factor_score
    ##     <dbl>  <dbl>  <dbl>  <dbl>  <dbl>  <dbl> <date>          <dbl>        <dbl>
    ##  1   27.9   16.3   68.2  -5.02  -6.91   121. 1999-01-01          1       NA    
    ##  2   27.9   16.3   68.2  -5.02  -6.91   121. 1999-01-01          2       NA    
    ##  3   27.9   16.3   68.2  -5.02  -6.91   121. 1999-01-01          4       NA    
    ##  4   27.9   16.3   68.2  -5.02  -6.91   121. 1999-01-01          6       NA    
    ##  5   27.9   16.3   68.2  -5.02  -6.91   121. 1999-01-01          5       NA    
    ##  6   27.9   16.3   68.2  -5.02  -6.91   121. 1999-01-01          3       NA    
    ##  7   27.9   16.3   68.2  -5.02  -6.91   121. 1999-01-02          1        0.413
    ##  8   27.9   16.3   68.2  -5.02  -6.91   121. 1999-01-02          2        2.07 
    ##  9   27.9   16.3   68.2  -5.02  -6.91   121. 1999-01-02          4        0.360
    ## 10   27.9   16.3   68.2  -5.02  -6.91   121. 1999-01-02          6       -0.130
    ## # … with 26,288 more rows
    ## 
    ## $Al
    ## # A tibble: 26,298 x 9
    ##    beta_1 beta_2 beta_4 beta_6 beta_5 beta_3 date       factor_num factor_score
    ##     <dbl>  <dbl>  <dbl>  <dbl>  <dbl>  <dbl> <date>          <dbl>        <dbl>
    ##  1   35.0  0.136   7.32   1.57   8.41   1.07 1999-01-01          1       NA    
    ##  2   35.0  0.136   7.32   1.57   8.41   1.07 1999-01-01          2       NA    
    ##  3   35.0  0.136   7.32   1.57   8.41   1.07 1999-01-01          4       NA    
    ##  4   35.0  0.136   7.32   1.57   8.41   1.07 1999-01-01          6       NA    
    ##  5   35.0  0.136   7.32   1.57   8.41   1.07 1999-01-01          5       NA    
    ##  6   35.0  0.136   7.32   1.57   8.41   1.07 1999-01-01          3       NA    
    ##  7   35.0  0.136   7.32   1.57   8.41   1.07 1999-01-02          1        0.413
    ##  8   35.0  0.136   7.32   1.57   8.41   1.07 1999-01-02          2        2.07 
    ##  9   35.0  0.136   7.32   1.57   8.41   1.07 1999-01-02          4        0.360
    ## 10   35.0  0.136   7.32   1.57   8.41   1.07 1999-01-02          6       -0.130
    ## # … with 26,288 more rows
    ## 
    ## $Si
    ## # A tibble: 26,298 x 9
    ##    beta_1 beta_2 beta_4 beta_6 beta_5 beta_3 date       factor_num factor_score
    ##     <dbl>  <dbl>  <dbl>  <dbl>  <dbl>  <dbl> <date>          <dbl>        <dbl>
    ##  1   63.9   2.08  -2.56   10.8   1.53 -0.867 1999-01-01          1       NA    
    ##  2   63.9   2.08  -2.56   10.8   1.53 -0.867 1999-01-01          2       NA    
    ##  3   63.9   2.08  -2.56   10.8   1.53 -0.867 1999-01-01          4       NA    
    ##  4   63.9   2.08  -2.56   10.8   1.53 -0.867 1999-01-01          6       NA    
    ##  5   63.9   2.08  -2.56   10.8   1.53 -0.867 1999-01-01          5       NA    
    ##  6   63.9   2.08  -2.56   10.8   1.53 -0.867 1999-01-01          3       NA    
    ##  7   63.9   2.08  -2.56   10.8   1.53 -0.867 1999-01-02          1        0.413
    ##  8   63.9   2.08  -2.56   10.8   1.53 -0.867 1999-01-02          2        2.07 
    ##  9   63.9   2.08  -2.56   10.8   1.53 -0.867 1999-01-02          4        0.360
    ## 10   63.9   2.08  -2.56   10.8   1.53 -0.867 1999-01-02          6       -0.130
    ## # … with 26,288 more rows
    ## 
    ## $S
    ## # A tibble: 26,298 x 9
    ##    beta_1 beta_2 beta_4 beta_6 beta_5 beta_3 date       factor_num factor_score
    ##     <dbl>  <dbl>  <dbl>  <dbl>  <dbl>  <dbl> <date>          <dbl>        <dbl>
    ##  1   196.   70.5   844.  -32.5   5.30   4.91 1999-01-01          1       NA    
    ##  2   196.   70.5   844.  -32.5   5.30   4.91 1999-01-01          2       NA    
    ##  3   196.   70.5   844.  -32.5   5.30   4.91 1999-01-01          4       NA    
    ##  4   196.   70.5   844.  -32.5   5.30   4.91 1999-01-01          6       NA    
    ##  5   196.   70.5   844.  -32.5   5.30   4.91 1999-01-01          5       NA    
    ##  6   196.   70.5   844.  -32.5   5.30   4.91 1999-01-01          3       NA    
    ##  7   196.   70.5   844.  -32.5   5.30   4.91 1999-01-02          1        0.413
    ##  8   196.   70.5   844.  -32.5   5.30   4.91 1999-01-02          2        2.07 
    ##  9   196.   70.5   844.  -32.5   5.30   4.91 1999-01-02          4        0.360
    ## 10   196.   70.5   844.  -32.5   5.30   4.91 1999-01-02          6       -0.130
    ## # … with 26,288 more rows
    ## 
    ## $Cl
    ## # A tibble: 26,298 x 9
    ##    beta_1 beta_2 beta_4 beta_6 beta_5 beta_3 date       factor_num factor_score
    ##     <dbl>  <dbl>  <dbl>  <dbl>  <dbl>  <dbl> <date>          <dbl>        <dbl>
    ##  1  -3.07  -2.44  -19.3   3.86   7.78   69.5 1999-01-01          1       NA    
    ##  2  -3.07  -2.44  -19.3   3.86   7.78   69.5 1999-01-01          2       NA    
    ##  3  -3.07  -2.44  -19.3   3.86   7.78   69.5 1999-01-01          4       NA    
    ##  4  -3.07  -2.44  -19.3   3.86   7.78   69.5 1999-01-01          6       NA    
    ##  5  -3.07  -2.44  -19.3   3.86   7.78   69.5 1999-01-01          5       NA    
    ##  6  -3.07  -2.44  -19.3   3.86   7.78   69.5 1999-01-01          3       NA    
    ##  7  -3.07  -2.44  -19.3   3.86   7.78   69.5 1999-01-02          1        0.413
    ##  8  -3.07  -2.44  -19.3   3.86   7.78   69.5 1999-01-02          2        2.07 
    ##  9  -3.07  -2.44  -19.3   3.86   7.78   69.5 1999-01-02          4        0.360
    ## 10  -3.07  -2.44  -19.3   3.86   7.78   69.5 1999-01-02          6       -0.130
    ## # … with 26,288 more rows
    ## 
    ## $K
    ## # A tibble: 26,298 x 9
    ##    beta_1 beta_2 beta_4 beta_6 beta_5 beta_3 date       factor_num factor_score
    ##     <dbl>  <dbl>  <dbl>  <dbl>  <dbl>  <dbl> <date>          <dbl>        <dbl>
    ##  1   8.82   4.06   7.74   3.39   7.15   2.35 1999-01-01          1       NA    
    ##  2   8.82   4.06   7.74   3.39   7.15   2.35 1999-01-01          2       NA    
    ##  3   8.82   4.06   7.74   3.39   7.15   2.35 1999-01-01          4       NA    
    ##  4   8.82   4.06   7.74   3.39   7.15   2.35 1999-01-01          6       NA    
    ##  5   8.82   4.06   7.74   3.39   7.15   2.35 1999-01-01          5       NA    
    ##  6   8.82   4.06   7.74   3.39   7.15   2.35 1999-01-01          3       NA    
    ##  7   8.82   4.06   7.74   3.39   7.15   2.35 1999-01-02          1        0.413
    ##  8   8.82   4.06   7.74   3.39   7.15   2.35 1999-01-02          2        2.07 
    ##  9   8.82   4.06   7.74   3.39   7.15   2.35 1999-01-02          4        0.360
    ## 10   8.82   4.06   7.74   3.39   7.15   2.35 1999-01-02          6       -0.130
    ## # … with 26,288 more rows
    ## 
    ## $Ca
    ## # A tibble: 26,298 x 9
    ##    beta_1 beta_2 beta_4 beta_6 beta_5 beta_3 date       factor_num factor_score
    ##     <dbl>  <dbl>  <dbl>  <dbl>  <dbl>  <dbl> <date>          <dbl>        <dbl>
    ##  1   10.8   3.87  0.784   6.31   2.01   3.65 1999-01-01          1       NA    
    ##  2   10.8   3.87  0.784   6.31   2.01   3.65 1999-01-01          2       NA    
    ##  3   10.8   3.87  0.784   6.31   2.01   3.65 1999-01-01          4       NA    
    ##  4   10.8   3.87  0.784   6.31   2.01   3.65 1999-01-01          6       NA    
    ##  5   10.8   3.87  0.784   6.31   2.01   3.65 1999-01-01          5       NA    
    ##  6   10.8   3.87  0.784   6.31   2.01   3.65 1999-01-01          3       NA    
    ##  7   10.8   3.87  0.784   6.31   2.01   3.65 1999-01-02          1        0.413
    ##  8   10.8   3.87  0.784   6.31   2.01   3.65 1999-01-02          2        2.07 
    ##  9   10.8   3.87  0.784   6.31   2.01   3.65 1999-01-02          4        0.360
    ## 10   10.8   3.87  0.784   6.31   2.01   3.65 1999-01-02          6       -0.130
    ## # … with 26,288 more rows
    ## 
    ## $Ti
    ## # A tibble: 26,298 x 9
    ##    beta_1 beta_2 beta_4 beta_6 beta_5 beta_3 date       factor_num factor_score
    ##     <dbl>  <dbl>  <dbl>  <dbl>  <dbl>  <dbl> <date>          <dbl>        <dbl>
    ##  1   1.56 0.0780  0.221  0.444   2.28 0.0428 1999-01-01          1       NA    
    ##  2   1.56 0.0780  0.221  0.444   2.28 0.0428 1999-01-01          2       NA    
    ##  3   1.56 0.0780  0.221  0.444   2.28 0.0428 1999-01-01          4       NA    
    ##  4   1.56 0.0780  0.221  0.444   2.28 0.0428 1999-01-01          6       NA    
    ##  5   1.56 0.0780  0.221  0.444   2.28 0.0428 1999-01-01          5       NA    
    ##  6   1.56 0.0780  0.221  0.444   2.28 0.0428 1999-01-01          3       NA    
    ##  7   1.56 0.0780  0.221  0.444   2.28 0.0428 1999-01-02          1        0.413
    ##  8   1.56 0.0780  0.221  0.444   2.28 0.0428 1999-01-02          2        2.07 
    ##  9   1.56 0.0780  0.221  0.444   2.28 0.0428 1999-01-02          4        0.360
    ## 10   1.56 0.0780  0.221  0.444   2.28 0.0428 1999-01-02          6       -0.130
    ## # … with 26,288 more rows
    ## 
    ## $V
    ## # A tibble: 26,298 x 9
    ##    beta_1 beta_2 beta_4 beta_6 beta_5 beta_3 date       factor_num factor_score
    ##     <dbl>  <dbl>  <dbl>  <dbl>  <dbl>  <dbl> <date>          <dbl>        <dbl>
    ##  1  0.289   3.42  0.640  0.345  0.349 0.0679 1999-01-01          1       NA    
    ##  2  0.289   3.42  0.640  0.345  0.349 0.0679 1999-01-01          2       NA    
    ##  3  0.289   3.42  0.640  0.345  0.349 0.0679 1999-01-01          4       NA    
    ##  4  0.289   3.42  0.640  0.345  0.349 0.0679 1999-01-01          6       NA    
    ##  5  0.289   3.42  0.640  0.345  0.349 0.0679 1999-01-01          5       NA    
    ##  6  0.289   3.42  0.640  0.345  0.349 0.0679 1999-01-01          3       NA    
    ##  7  0.289   3.42  0.640  0.345  0.349 0.0679 1999-01-02          1        0.413
    ##  8  0.289   3.42  0.640  0.345  0.349 0.0679 1999-01-02          2        2.07 
    ##  9  0.289   3.42  0.640  0.345  0.349 0.0679 1999-01-02          4        0.360
    ## 10  0.289   3.42  0.640  0.345  0.349 0.0679 1999-01-02          6       -0.130
    ## # … with 26,288 more rows
    ## 
    ## $Cr
    ## # A tibble: 26,298 x 9
    ##    beta_1  beta_2 beta_4 beta_6 beta_5  beta_3 date       factor_num
    ##     <dbl>   <dbl>  <dbl>  <dbl>  <dbl>   <dbl> <date>          <dbl>
    ##  1 0.0280 0.00791 0.0387 0.0667  0.124 -0.0171 1999-01-01          1
    ##  2 0.0280 0.00791 0.0387 0.0667  0.124 -0.0171 1999-01-01          2
    ##  3 0.0280 0.00791 0.0387 0.0667  0.124 -0.0171 1999-01-01          4
    ##  4 0.0280 0.00791 0.0387 0.0667  0.124 -0.0171 1999-01-01          6
    ##  5 0.0280 0.00791 0.0387 0.0667  0.124 -0.0171 1999-01-01          5
    ##  6 0.0280 0.00791 0.0387 0.0667  0.124 -0.0171 1999-01-01          3
    ##  7 0.0280 0.00791 0.0387 0.0667  0.124 -0.0171 1999-01-02          1
    ##  8 0.0280 0.00791 0.0387 0.0667  0.124 -0.0171 1999-01-02          2
    ##  9 0.0280 0.00791 0.0387 0.0667  0.124 -0.0171 1999-01-02          4
    ## 10 0.0280 0.00791 0.0387 0.0667  0.124 -0.0171 1999-01-02          6
    ## # … with 26,288 more rows, and 1 more variable: factor_score <dbl>
    ## 
    ## $Mn
    ## # A tibble: 26,298 x 9
    ##    beta_1 beta_2 beta_4 beta_6 beta_5 beta_3 date       factor_num factor_score
    ##     <dbl>  <dbl>  <dbl>  <dbl>  <dbl>  <dbl> <date>          <dbl>        <dbl>
    ##  1  0.172  0.207 0.0281   1.00 0.0646 0.0842 1999-01-01          1       NA    
    ##  2  0.172  0.207 0.0281   1.00 0.0646 0.0842 1999-01-01          2       NA    
    ##  3  0.172  0.207 0.0281   1.00 0.0646 0.0842 1999-01-01          4       NA    
    ##  4  0.172  0.207 0.0281   1.00 0.0646 0.0842 1999-01-01          6       NA    
    ##  5  0.172  0.207 0.0281   1.00 0.0646 0.0842 1999-01-01          5       NA    
    ##  6  0.172  0.207 0.0281   1.00 0.0646 0.0842 1999-01-01          3       NA    
    ##  7  0.172  0.207 0.0281   1.00 0.0646 0.0842 1999-01-02          1        0.413
    ##  8  0.172  0.207 0.0281   1.00 0.0646 0.0842 1999-01-02          2        2.07 
    ##  9  0.172  0.207 0.0281   1.00 0.0646 0.0842 1999-01-02          4        0.360
    ## 10  0.172  0.207 0.0281   1.00 0.0646 0.0842 1999-01-02          6       -0.130
    ## # … with 26,288 more rows
    ## 
    ## $Fe
    ## # A tibble: 26,298 x 9
    ##    beta_1 beta_2 beta_4 beta_6 beta_5 beta_3 date       factor_num factor_score
    ##     <dbl>  <dbl>  <dbl>  <dbl>  <dbl>  <dbl> <date>          <dbl>        <dbl>
    ##  1   18.3   7.46   7.47   28.0   7.71 -0.992 1999-01-01          1       NA    
    ##  2   18.3   7.46   7.47   28.0   7.71 -0.992 1999-01-01          2       NA    
    ##  3   18.3   7.46   7.47   28.0   7.71 -0.992 1999-01-01          4       NA    
    ##  4   18.3   7.46   7.47   28.0   7.71 -0.992 1999-01-01          6       NA    
    ##  5   18.3   7.46   7.47   28.0   7.71 -0.992 1999-01-01          5       NA    
    ##  6   18.3   7.46   7.47   28.0   7.71 -0.992 1999-01-01          3       NA    
    ##  7   18.3   7.46   7.47   28.0   7.71 -0.992 1999-01-02          1        0.413
    ##  8   18.3   7.46   7.47   28.0   7.71 -0.992 1999-01-02          2        2.07 
    ##  9   18.3   7.46   7.47   28.0   7.71 -0.992 1999-01-02          4        0.360
    ## 10   18.3   7.46   7.47   28.0   7.71 -0.992 1999-01-02          6       -0.130
    ## # … with 26,288 more rows
    ## 
    ## $Ni
    ## # A tibble: 26,298 x 9
    ##    beta_1 beta_2 beta_4 beta_6 beta_5 beta_3 date       factor_num factor_score
    ##     <dbl>  <dbl>  <dbl>  <dbl>  <dbl>  <dbl> <date>          <dbl>        <dbl>
    ##  1 0.0928   3.44  0.162  0.439  0.152 0.0904 1999-01-01          1       NA    
    ##  2 0.0928   3.44  0.162  0.439  0.152 0.0904 1999-01-01          2       NA    
    ##  3 0.0928   3.44  0.162  0.439  0.152 0.0904 1999-01-01          4       NA    
    ##  4 0.0928   3.44  0.162  0.439  0.152 0.0904 1999-01-01          6       NA    
    ##  5 0.0928   3.44  0.162  0.439  0.152 0.0904 1999-01-01          5       NA    
    ##  6 0.0928   3.44  0.162  0.439  0.152 0.0904 1999-01-01          3       NA    
    ##  7 0.0928   3.44  0.162  0.439  0.152 0.0904 1999-01-02          1        0.413
    ##  8 0.0928   3.44  0.162  0.439  0.152 0.0904 1999-01-02          2        2.07 
    ##  9 0.0928   3.44  0.162  0.439  0.152 0.0904 1999-01-02          4        0.360
    ## 10 0.0928   3.44  0.162  0.439  0.152 0.0904 1999-01-02          6       -0.130
    ## # … with 26,288 more rows
    ## 
    ## $Cu
    ## # A tibble: 26,298 x 9
    ##     beta_1 beta_2 beta_4 beta_6 beta_5 beta_3 date       factor_num factor_score
    ##      <dbl>  <dbl>  <dbl>  <dbl>  <dbl>  <dbl> <date>          <dbl>        <dbl>
    ##  1 -0.0572  0.202  0.283  0.209   2.95  0.140 1999-01-01          1       NA    
    ##  2 -0.0572  0.202  0.283  0.209   2.95  0.140 1999-01-01          2       NA    
    ##  3 -0.0572  0.202  0.283  0.209   2.95  0.140 1999-01-01          4       NA    
    ##  4 -0.0572  0.202  0.283  0.209   2.95  0.140 1999-01-01          6       NA    
    ##  5 -0.0572  0.202  0.283  0.209   2.95  0.140 1999-01-01          5       NA    
    ##  6 -0.0572  0.202  0.283  0.209   2.95  0.140 1999-01-01          3       NA    
    ##  7 -0.0572  0.202  0.283  0.209   2.95  0.140 1999-01-02          1        0.413
    ##  8 -0.0572  0.202  0.283  0.209   2.95  0.140 1999-01-02          2        2.07 
    ##  9 -0.0572  0.202  0.283  0.209   2.95  0.140 1999-01-02          4        0.360
    ## 10 -0.0572  0.202  0.283  0.209   2.95  0.140 1999-01-02          6       -0.130
    ## # … with 26,288 more rows
    ## 
    ## $Zn
    ## # A tibble: 26,298 x 9
    ##    beta_1 beta_2 beta_4 beta_6 beta_5 beta_3 date       factor_num factor_score
    ##     <dbl>  <dbl>  <dbl>  <dbl>  <dbl>  <dbl> <date>          <dbl>        <dbl>
    ##  1 0.0479   4.06   2.83   3.30   3.21 -0.421 1999-01-01          1       NA    
    ##  2 0.0479   4.06   2.83   3.30   3.21 -0.421 1999-01-01          2       NA    
    ##  3 0.0479   4.06   2.83   3.30   3.21 -0.421 1999-01-01          4       NA    
    ##  4 0.0479   4.06   2.83   3.30   3.21 -0.421 1999-01-01          6       NA    
    ##  5 0.0479   4.06   2.83   3.30   3.21 -0.421 1999-01-01          5       NA    
    ##  6 0.0479   4.06   2.83   3.30   3.21 -0.421 1999-01-01          3       NA    
    ##  7 0.0479   4.06   2.83   3.30   3.21 -0.421 1999-01-02          1        0.413
    ##  8 0.0479   4.06   2.83   3.30   3.21 -0.421 1999-01-02          2        2.07 
    ##  9 0.0479   4.06   2.83   3.30   3.21 -0.421 1999-01-02          4        0.360
    ## 10 0.0479   4.06   2.83   3.30   3.21 -0.421 1999-01-02          6       -0.130
    ## # … with 26,288 more rows
    ## 
    ## $Se
…
